# nurbs mesh v.2.1
#
# 29-Sep-2016
#
2 2 1 0 0 
PATCH 1 
1 1 
2 2 
0.0000000   0.0000000   1.0000000   1.0000000   
0.0000000   0.0000000   1.0000000   1.0000000   
-1.000000000000000   1.000000000000000   -1.000000000000000   1.000000000000000   
-1.000000000000000   -1.000000000000000   1.000000000000000   1.000000000000000   
1.000000000000000   1.000000000000000   1.000000000000000   1.000000000000000   
